%YAML 1.1
%TAG !u! tag:unity3d.com,2011:
--- !u!114 &11400000
MonoBehaviour:
  m_ObjectHideFlags: 0
  m_CorrespondingSourceObject: {fileID: 0}
  m_PrefabInstance: {fileID: 0}
  m_PrefabAsset: {fileID: 0}
  m_GameObject: {fileID: 0}
  m_Enabled: 1
  m_EditorHideFlags: 0
  m_Script: {fileID: 11500000, guid: 896e429761a464942a6945ecf940ec7d, type: 3}
  m_Name: _Pack__Char_00000011
  m_EditorClassIdentifier: 
  sentences:
    reorderableList:
      canAdd: 0
      canRemove: 0
      draggable: 0
      expandable: 0
      multipleSelection: 0
      isExpanded: 0
      label:
        m_Text: 
        m_Image: {fileID: 0}
        m_Tooltip: 
      headerHeight: 0
      footerHeight: 0
      slideEasing: 0
      verticalSpacing: 0
      showDefaultBackground: 0
      elementDisplayType: 0
      elementNameProperty: 
      elementNameOverride: 
      elementIcon: {fileID: 0}
    reqReferences: {fileID: 0}
    isExpanded: 0
    _keyValues: []
    _keys: []
    _values: []
