%YAML 1.1
%TAG !u! tag:unity3d.com,2011:
--- !u!114 &11400000
MonoBehaviour:
  m_ObjectHideFlags: 0
  m_CorrespondingSourceObject: {fileID: 0}
  m_PrefabInstance: {fileID: 0}
  m_PrefabAsset: {fileID: 0}
  m_GameObject: {fileID: 0}
  m_Enabled: 1
  m_EditorHideFlags: 0
  m_Script: {fileID: 11500000, guid: df17684af8c0ffe42b8ba6f5d0b7c3b9, type: 3}
  m_Name: _Char_Belenus Gerabel
  m_EditorClassIdentifier: 
  characterName: Belenus
  surname: Gerabel
  characterId: _Char_00000003
