%YAML 1.1
%TAG !u! tag:unity3d.com,2011:
--- !u!114 &11400000
MonoBehaviour:
  m_ObjectHideFlags: 0
  m_CorrespondingSourceObject: {fileID: 0}
  m_PrefabInstance: {fileID: 0}
  m_PrefabAsset: {fileID: 0}
  m_GameObject: {fileID: 0}
  m_Enabled: 1
  m_EditorHideFlags: 0
  m_Script: {fileID: 11500000, guid: 4c22144e0abb8c5499f674a0bfb8074f, type: 3}
  m_Name: _Sent_00000070
  m_EditorClassIdentifier: 
  ownerId: _Char_00000002
  sentenceId: _Sent_00000070
  text: oooooooo
  audio: {fileID: 0}
  startPause: 0
  visual: {fileID: 0}
