%YAML 1.1
%TAG !u! tag:unity3d.com,2011:
--- !u!114 &11400000
MonoBehaviour:
  m_ObjectHideFlags: 0
  m_CorrespondingSourceObject: {fileID: 0}
  m_PrefabInstance: {fileID: 0}
  m_PrefabAsset: {fileID: 0}
  m_GameObject: {fileID: 0}
  m_Enabled: 1
  m_EditorHideFlags: 0
  m_Script: {fileID: 11500000, guid: 8f2b8fbf66e744540bf663f3bc6e63e7, type: 3}
  m_Name: _SNode__Sent_00000108
  m_EditorClassIdentifier: 
  parents:
  - {fileID: 11400000, guid: c85d9f8f1c58ee34ab489c5f8f8266b1, type: 2}
  children:
  - {fileID: 11400000, guid: a11deb7ac5557214594a0d52cc1fd324, type: 2}
  value: {fileID: 11400000, guid: 970d301dda3492f40b4a7407e635f466, type: 2}
