%YAML 1.1
%TAG !u! tag:unity3d.com,2011:
--- !u!114 &11400000
MonoBehaviour:
  m_ObjectHideFlags: 0
  m_CorrespondingSourceObject: {fileID: 0}
  m_PrefabInstance: {fileID: 0}
  m_PrefabAsset: {fileID: 0}
  m_GameObject: {fileID: 0}
  m_Enabled: 1
  m_EditorHideFlags: 0
  m_Script: {fileID: 11500000, guid: 520d26f64c16ad240bdc29d8402b6ea0, type: 3}
  m_Name: DB_Dialog
  m_EditorClassIdentifier: 
  idPrefix: Dlg_
  dialogCount: 13
  keys:
  - 
  - Dlg_00000001
  - Dlg_00000003
  - Dlg_00000004
  - Dlg_00000005
  - Dlg_00000006
  - Dlg_00000007
  - Dlg_00000008
  - Dlg_00000009
  - Dlg_00000010
  - Dlg_00000011
  - Dlg_00000012
  dialogs:
    reorderableList:
      canAdd: 0
      canRemove: 0
      draggable: 0
      expandable: 0
      multipleSelection: 0
      isExpanded: 0
      label:
        m_Text: 
        m_Image: {fileID: 0}
        m_Tooltip: 
      headerHeight: 0
      footerHeight: 0
      slideEasing: 0
      verticalSpacing: 0
      showDefaultBackground: 0
      elementDisplayType: 0
      elementNameProperty: 
      elementNameOverride: 
      elementIcon: {fileID: 0}
    reqReferences: {fileID: 0}
    isExpanded: 0
    _keyValues:
    - 
    - Dlg_00000001
    - Dlg_00000003
    - Dlg_00000004
    - Dlg_00000005
    - Dlg_00000006
    - Dlg_00000007
    - Dlg_00000008
    - Dlg_00000009
    - Dlg_00000010
    - Dlg_00000011
    - Dlg_00000012
    _keys:
    - 
    - Dlg_00000001
    - Dlg_00000003
    - Dlg_00000004
    - Dlg_00000005
    - Dlg_00000006
    - Dlg_00000007
    - Dlg_00000008
    - Dlg_00000009
    - Dlg_00000010
    - Dlg_00000011
    - Dlg_00000012
    _values:
    - {fileID: 11400000, guid: d2058771d1c2ad64eb971a3c3fbbc81a, type: 2}
    - {fileID: 11400000, guid: 060e9d7f6f05e57449fec856efc45d57, type: 2}
    - {fileID: 11400000, guid: 17df91408d4ba604a973ec32cdb8afa6, type: 2}
    - {fileID: 11400000, guid: c7a116160e057234cba9f96bcf9c8db2, type: 2}
    - {fileID: 11400000, guid: 948ad346aaa7b0043bc2762a8da2190c, type: 2}
    - {fileID: 11400000, guid: 0933a1452095ed446b3834c85a661afc, type: 2}
    - {fileID: 11400000, guid: 4375c3697cf26564ebdec6b481c9c12a, type: 2}
    - {fileID: 11400000, guid: 7089802201b5eff4187b6564ebe87638, type: 2}
    - {fileID: 11400000, guid: 050d3f46dff01ca43aaae4d43918d818, type: 2}
    - {fileID: 11400000, guid: 27457dec1656b8c428fe89ae118e09d5, type: 2}
    - {fileID: 11400000, guid: 7fc660ffa2575cf4f85fc0a84fe9ec28, type: 2}
    - {fileID: 11400000, guid: 95c8da7bde91d5e4bbd7abc82ffaf091, type: 2}
